<?xml version="1.0" encoding="UTF-8" ?>
<testsuite failures="0" time="0.729" errors="0" skipped="0" tests="41" name="ort.practicasIS.laboratorio4.test.GameTest">
  <properties>
    <property name="java.runtime.name" value="Java(TM) SE Runtime Environment"/>
    <property name="sun.boot.library.path" value="C:\Program Files\Java\jdk1.7.0_02\jre\bin"/>
    <property name="java.vm.version" value="22.0-b10"/>
    <property name="java.vm.vendor" value="Oracle Corporation"/>
    <property name="java.vendor.url" value="http://java.oracle.com/"/>
    <property name="path.separator" value=";"/>
    <property name="java.vm.name" value="Java HotSpot(TM) 64-Bit Server VM"/>
    <property name="file.encoding.pkg" value="sun.io"/>
    <property name="user.script" value=""/>
    <property name="user.country" value="US"/>
    <property name="sun.java.launcher" value="SUN_STANDARD"/>
    <property name="sun.os.patch.level" value="Service Pack 1"/>
    <property name="java.vm.specification.name" value="Java Virtual Machine Specification"/>
    <property name="user.dir" value="D:\dropbox\Master\practicas IS\Laboratorios\Laboratorio 4\Codigo"/>
    <property name="java.runtime.version" value="1.7.0_02-b13"/>
    <property name="java.awt.graphicsenv" value="sun.awt.Win32GraphicsEnvironment"/>
    <property name="basedir" value="D:\dropbox\Master\practicas IS\Laboratorios\Laboratorio 4\Codigo"/>
    <property name="java.endorsed.dirs" value="C:\Program Files\Java\jdk1.7.0_02\jre\lib\endorsed"/>
    <property name="os.arch" value="amd64"/>
    <property name="surefire.real.class.path" value="D:\dropbox\Master\practicas IS\Laboratorios\Laboratorio 4\Codigo\target\surefire\surefirebooter38109355033764600.jar"/>
    <property name="java.io.tmpdir" value="C:\Users\Owner\AppData\Local\Temp\"/>
    <property name="line.separator" value="
"/>
    <property name="java.vm.specification.vendor" value="Oracle Corporation"/>
    <property name="user.variant" value=""/>
    <property name="os.name" value="Windows 7"/>
    <property name="sun.jnu.encoding" value="Cp1252"/>
    <property name="java.library.path" value="C:\Program Files\Java\jdk1.7.0_02\jre\bin;C:\Windows\Sun\Java\bin;C:\Windows\system32;C:\Windows;D:/aptana/jre/bin/client;D:/aptana/jre/bin;D:/aptana/jre/lib/i386;C:\Python27\;C:\Python27\Scripts;C:\Program Files\Common Files\Microsoft Shared\Windows Live;C:\Program Files (x86)\Common Files\Microsoft Shared\Windows Live;C:\Windows\system32;C:\Windows;C:\Windows\System32\Wbem;C:\Windows\System32\WindowsPowerShell\v1.0\;C:\Program Files (x86)\Sony\VAIO Startup Setting Tool;C:\Program Files (x86)\Windows Live\Shared;C:\Program Files (x86)\QuickTime\QTSystem\;C:\Program Files (x86)\Microsoft SQL Server\100\Tools\Binn\;C:\Program Files\Microsoft SQL Server\100\Tools\Binn\;C:\Program Files\Microsoft SQL Server\100\DTS\Binn\;C:\Program Files\Microsoft Network Monitor 3\;C:\Program Files\Intel\WiFi\bin\;C:\Program Files\Common Files\Intel\WirelessCommon\;C:\Users\Owner\AppData\Roaming\Python\Scripts;D:\aptana;;."/>
    <property name="surefire.test.class.path" value="D:\dropbox\Master\practicas IS\Laboratorios\Laboratorio 4\Codigo\target\test-classes;D:\dropbox\Master\practicas IS\Laboratorios\Laboratorio 4\Codigo\target\classes;C:\Users\Owner\.m2\repository\junit\junit\4.8.2\junit-4.8.2.jar;C:\Users\Owner\.m2\repository\info\cukes\cucumber-junit\1.0.0.RC24\cucumber-junit-1.0.0.RC24.jar;C:\Users\Owner\.m2\repository\info\cukes\cucumber-core\1.0.0.RC24\cucumber-core-1.0.0.RC24.jar;C:\Users\Owner\.m2\repository\info\cukes\gherkin\2.9.1\gherkin-2.9.1.jar;C:\Users\Owner\.m2\repository\info\cukes\cucumber-html\0.2.1\cucumber-html-0.2.1.jar;C:\Users\Owner\.m2\repository\info\cukes\cucumber-java\1.0.0.RC24\cucumber-java-1.0.0.RC24.jar;C:\Users\Owner\.m2\repository\info\cukes\cucumber-picocontainer\1.0.0.RC24\cucumber-picocontainer-1.0.0.RC24.jar;C:\Users\Owner\.m2\repository\org\picocontainer\picocontainer\2.10.2\picocontainer-2.10.2.jar;C:\Users\Owner\.m2\repository\javax\annotation\jsr250-api\1.0\jsr250-api-1.0.jar;C:\Users\Owner\.m2\repository\javax\inject\javax.inject\1\javax.inject-1.jar;"/>
    <property name="java.specification.name" value="Java Platform API Specification"/>
    <property name="java.class.version" value="51.0"/>
    <property name="sun.management.compiler" value="HotSpot 64-Bit Tiered Compilers"/>
    <property name="os.version" value="6.1"/>
    <property name="user.home" value="C:\Users\Owner"/>
    <property name="user.timezone" value="America/Montevideo"/>
    <property name="java.awt.printerjob" value="sun.awt.windows.WPrinterJob"/>
    <property name="java.specification.version" value="1.7"/>
    <property name="file.encoding" value="Cp1252"/>
    <property name="user.name" value="Owner"/>
    <property name="java.class.path" value="D:\dropbox\Master\practicas IS\Laboratorios\Laboratorio 4\Codigo\target\test-classes;D:\dropbox\Master\practicas IS\Laboratorios\Laboratorio 4\Codigo\target\classes;C:\Users\Owner\.m2\repository\junit\junit\4.8.2\junit-4.8.2.jar;C:\Users\Owner\.m2\repository\info\cukes\cucumber-junit\1.0.0.RC24\cucumber-junit-1.0.0.RC24.jar;C:\Users\Owner\.m2\repository\info\cukes\cucumber-core\1.0.0.RC24\cucumber-core-1.0.0.RC24.jar;C:\Users\Owner\.m2\repository\info\cukes\gherkin\2.9.1\gherkin-2.9.1.jar;C:\Users\Owner\.m2\repository\info\cukes\cucumber-html\0.2.1\cucumber-html-0.2.1.jar;C:\Users\Owner\.m2\repository\info\cukes\cucumber-java\1.0.0.RC24\cucumber-java-1.0.0.RC24.jar;C:\Users\Owner\.m2\repository\info\cukes\cucumber-picocontainer\1.0.0.RC24\cucumber-picocontainer-1.0.0.RC24.jar;C:\Users\Owner\.m2\repository\org\picocontainer\picocontainer\2.10.2\picocontainer-2.10.2.jar;C:\Users\Owner\.m2\repository\javax\annotation\jsr250-api\1.0\jsr250-api-1.0.jar;C:\Users\Owner\.m2\repository\javax\inject\javax.inject\1\javax.inject-1.jar;"/>
    <property name="java.vm.specification.version" value="1.7"/>
    <property name="sun.arch.data.model" value="64"/>
    <property name="java.home" value="C:\Program Files\Java\jdk1.7.0_02\jre"/>
    <property name="sun.java.command" value="D:\dropbox\Master\practicas IS\Laboratorios\Laboratorio 4\Codigo\target\surefire\surefirebooter38109355033764600.jar D:\dropbox\Master\practicas IS\Laboratorios\Laboratorio 4\Codigo\target\surefire\surefire5270106944366954657tmp D:\dropbox\Master\practicas IS\Laboratorios\Laboratorio 4\Codigo\target\surefire\surefire4401727914535677599tmp"/>
    <property name="java.specification.vendor" value="Oracle Corporation"/>
    <property name="user.language" value="en"/>
    <property name="awt.toolkit" value="sun.awt.windows.WToolkit"/>
    <property name="java.vm.info" value="mixed mode"/>
    <property name="java.version" value="1.7.0_02"/>
    <property name="java.ext.dirs" value="C:\Program Files\Java\jdk1.7.0_02\jre\lib\ext;C:\Windows\Sun\Java\lib\ext"/>
    <property name="sun.boot.class.path" value="C:\Program Files\Java\jdk1.7.0_02\jre\lib\resources.jar;C:\Program Files\Java\jdk1.7.0_02\jre\lib\rt.jar;C:\Program Files\Java\jdk1.7.0_02\jre\lib\sunrsasign.jar;C:\Program Files\Java\jdk1.7.0_02\jre\lib\jsse.jar;C:\Program Files\Java\jdk1.7.0_02\jre\lib\jce.jar;C:\Program Files\Java\jdk1.7.0_02\jre\lib\charsets.jar;C:\Program Files\Java\jdk1.7.0_02\jre\classes"/>
    <property name="java.vendor" value="Oracle Corporation"/>
    <property name="localRepository" value="C:\Users\Owner\.m2\repository"/>
    <property name="file.separator" value="\"/>
    <property name="java.vendor.url.bug" value="http://bugreport.sun.com/bugreport/"/>
    <property name="sun.cpu.endian" value="little"/>
    <property name="sun.io.unicode.encoding" value="UnicodeLittle"/>
    <property name="sun.desktop" value="windows"/>
    <property name="sun.cpu.isalist" value="amd64"/>
  </properties>
  <testcase time="0.124" classname="Scenario: Win perfect hanged game, Step: 0" name="Given category &apos;pelicula&apos; with dictionary &apos;terminator&apos;"/>
  <testcase time="0.001" classname="Scenario: Win perfect hanged game, Step: 1" name="When I start a new game"/>
  <testcase time="0" classname="Scenario: Win perfect hanged game, Step: 2" name="When I play the letters &apos;t e r m i n a t o r&apos;"/>
  <testcase time="0.003" classname="Scenario: Win perfect hanged game, Step: 3" name="Then I get the result word &apos;t e r m i n a t o r&apos;"/>
  <testcase time="0.001" classname="Scenario: Win perfect hanged game, Step: 4" name="Then I win the game"/>
  <testcase time="0.001" classname="Scenario: Win perfect hanged game" name="Scenario: Win perfect hanged game"/>
  <testcase time="0.001" classname="Scenario: Lose perfect hanged game, Step: 0" name="Given category &apos;pelicula&apos; with dictionary &apos;terminator&apos;"/>
  <testcase time="0.001" classname="Scenario: Lose perfect hanged game, Step: 1" name="When I start a new game"/>
  <testcase time="0.001" classname="Scenario: Lose perfect hanged game, Step: 2" name="When I play the letters &apos;b d f g h&apos;"/>
  <testcase time="0" classname="Scenario: Lose perfect hanged game, Step: 3" name="Then I lose the game"/>
  <testcase time="0.001" classname="Scenario: Lose perfect hanged game" name="Scenario: Lose perfect hanged game"/>
  <testcase time="0" classname="Scenario: Win hanged game with mistakes, Step: 0" name="Given category &apos;pelicula&apos; with dictionary &apos;terminator&apos;"/>
  <testcase time="0" classname="Scenario: Win hanged game with mistakes, Step: 1" name="When I start a new game"/>
  <testcase time="0" classname="Scenario: Win hanged game with mistakes, Step: 2" name="When I play the letters &apos;t e b r k m i n a t o r&apos;"/>
  <testcase time="0" classname="Scenario: Win hanged game with mistakes, Step: 3" name="Then I win the game"/>
  <testcase time="0" classname="Scenario: Win hanged game with mistakes" name="Scenario: Win hanged game with mistakes"/>
  <testcase time="0.001" classname="Scenario: Lose hanged game with hits, Step: 0" name="Given category &apos;pelicula&apos; with dictionary &apos;terminator&apos;"/>
  <testcase time="0" classname="Scenario: Lose hanged game with hits, Step: 1" name="When I start a new game"/>
  <testcase time="0.001" classname="Scenario: Lose hanged game with hits, Step: 2" name="When I play the letters &apos;b p d l f g h&apos;"/>
  <testcase time="0" classname="Scenario: Lose hanged game with hits, Step: 3" name="Then I lose the game"/>
  <testcase time="0.001" classname="Scenario: Lose hanged game with hits" name="Scenario: Lose hanged game with hits"/>
  <testcase time="0.004" classname="Scenario: Letter is on phrase, Step: 0" name="Given category &apos;pelicula&apos; with dictionary &apos;prueba&apos;"/>
  <testcase time="0" classname="Scenario: Letter is on phrase, Step: 1" name="When I start a new game"/>
  <testcase time="0.001" classname="Scenario: Letter is on phrase, Step: 2" name="When I play the letter &apos;p&apos;"/>
  <testcase time="0" classname="Scenario: Letter is on phrase, Step: 3" name="Then I get the result word &apos;p _ _ _ _ _&apos;"/>
  <testcase time="0" classname="Scenario: Letter is on phrase, Step: 4" name="Then I get the played letters &apos;p&apos;"/>
  <testcase time="0" classname="Scenario: Letter is on phrase, Step: 5" name="Then I get 5 more chances to play"/>
  <testcase time="0.001" classname="Scenario: Letter is on phrase" name="Scenario: Letter is on phrase"/>
  <testcase time="0.001" classname="Scenario: Letter is not in phrase, Step: 0" name="Given category &apos;pelicula&apos; with dictionary &apos;prueba&apos;"/>
  <testcase time="0.001" classname="Scenario: Letter is not in phrase, Step: 1" name="When I start a new game"/>
  <testcase time="0.001" classname="Scenario: Letter is not in phrase, Step: 2" name="When I play the letter &apos;f&apos;"/>
  <testcase time="0.001" classname="Scenario: Letter is not in phrase, Step: 3" name="Then I get the result word &apos;_ _ _ _ _ _&apos;"/>
  <testcase time="0" classname="Scenario: Letter is not in phrase, Step: 4" name="Then I get the played letters &apos;f&apos;"/>
  <testcase time="0" classname="Scenario: Letter is not in phrase, Step: 5" name="Then I get 4 more chances to play"/>
  <testcase time="0" classname="Scenario: Letter is not in phrase" name="Scenario: Letter is not in phrase"/>
  <testcase time="0.003" classname="Scenario: Start game with categories, Step: 0" name="Given category &apos;pelicula&apos; with dictionary &apos;terminator&apos;"/>
  <testcase time="0" classname="Scenario: Start game with categories, Step: 1" name="When I start a new game"/>
  <testcase time="0.001" classname="Scenario: Start game with categories, Step: 2" name="Then I get the result word &apos;_ _ _ _ _ _ _ _ _ _&apos;"/>
  <testcase time="0" classname="Scenario: Start game with categories, Step: 3" name="Then I get the played letters &apos;&apos;"/>
  <testcase time="0" classname="Scenario: Start game with categories, Step: 4" name="Then I get 5 more chances to play"/>
  <testcase time="0" classname="Scenario: Start game with categories" name="Scenario: Start game with categories"/>
</testsuite>