<?xml version="1.0" encoding="UTF-8" ?>
<testsuite failures="0" time="0.664" errors="0" skipped="9" tests="16" name="ort.practicasIS.laboratorio1.test.BasicTest">
  <properties>
    <property name="java.runtime.name" value="Java(TM) SE Runtime Environment"/>
    <property name="sun.boot.library.path" value="C:\Program Files\Java\jdk1.7.0_02\jre\bin"/>
    <property name="java.vm.version" value="22.0-b10"/>
    <property name="java.vm.vendor" value="Oracle Corporation"/>
    <property name="java.vendor.url" value="http://java.oracle.com/"/>
    <property name="path.separator" value=";"/>
    <property name="java.vm.name" value="Java HotSpot(TM) 64-Bit Server VM"/>
    <property name="file.encoding.pkg" value="sun.io"/>
    <property name="user.script" value=""/>
    <property name="user.country" value="US"/>
    <property name="sun.java.launcher" value="SUN_STANDARD"/>
    <property name="sun.os.patch.level" value="Service Pack 1"/>
    <property name="java.vm.specification.name" value="Java Virtual Machine Specification"/>
    <property name="user.dir" value="D:\dropbox\Master\practicas IS\Laboratorios\laboratorio1"/>
    <property name="java.runtime.version" value="1.7.0_02-b13"/>
    <property name="java.awt.graphicsenv" value="sun.awt.Win32GraphicsEnvironment"/>
    <property name="basedir" value="D:\dropbox\Master\practicas IS\Laboratorios\laboratorio1"/>
    <property name="java.endorsed.dirs" value="C:\Program Files\Java\jdk1.7.0_02\jre\lib\endorsed"/>
    <property name="os.arch" value="amd64"/>
    <property name="surefire.real.class.path" value="D:\dropbox\Master\practicas IS\Laboratorios\laboratorio1\target\surefire\surefirebooter2716720949137981465.jar"/>
    <property name="java.io.tmpdir" value="C:\Users\Owner\AppData\Local\Temp\"/>
    <property name="line.separator" value="
"/>
    <property name="java.vm.specification.vendor" value="Oracle Corporation"/>
    <property name="user.variant" value=""/>
    <property name="os.name" value="Windows 7"/>
    <property name="sun.jnu.encoding" value="Cp1252"/>
    <property name="java.library.path" value="C:\Program Files\Java\jdk1.7.0_02\jre\bin;C:\Windows\Sun\Java\bin;C:\Windows\system32;C:\Windows;D:/aptana/jre/bin/client;D:/aptana/jre/bin;D:/aptana/jre/lib/i386;C:\Python27\;C:\Python27\Scripts;C:\Program Files\Common Files\Microsoft Shared\Windows Live;C:\Program Files (x86)\Common Files\Microsoft Shared\Windows Live;C:\Windows\system32;C:\Windows;C:\Windows\System32\Wbem;C:\Windows\System32\WindowsPowerShell\v1.0\;C:\Program Files\Intel\WiFi\bin\;C:\Program Files\Common Files\Intel\WirelessCommon\;C:\Program Files (x86)\Sony\VAIO Startup Setting Tool;C:\Program Files (x86)\Windows Live\Shared;C:\Program Files (x86)\QuickTime\QTSystem\;C:\Program Files (x86)\Microsoft SQL Server\100\Tools\Binn\;C:\Program Files\Microsoft SQL Server\100\Tools\Binn\;C:\Program Files\Microsoft SQL Server\100\DTS\Binn\;C:\Program Files\Microsoft Network Monitor 3\;C:\Users\Owner\AppData\Roaming\Python\Scripts;D:\aptana;;."/>
    <property name="surefire.test.class.path" value="D:\dropbox\Master\practicas IS\Laboratorios\laboratorio1\target\test-classes;D:\dropbox\Master\practicas IS\Laboratorios\laboratorio1\target\classes;C:\Users\Owner\.m2\repository\junit\junit\4.8.2\junit-4.8.2.jar;C:\Users\Owner\.m2\repository\info\cukes\cucumber-junit\1.0.0.RC24\cucumber-junit-1.0.0.RC24.jar;C:\Users\Owner\.m2\repository\info\cukes\cucumber-core\1.0.0.RC24\cucumber-core-1.0.0.RC24.jar;C:\Users\Owner\.m2\repository\info\cukes\gherkin\2.9.1\gherkin-2.9.1.jar;C:\Users\Owner\.m2\repository\info\cukes\cucumber-html\0.2.1\cucumber-html-0.2.1.jar;C:\Users\Owner\.m2\repository\info\cukes\cucumber-java\1.0.0.RC24\cucumber-java-1.0.0.RC24.jar;C:\Users\Owner\.m2\repository\info\cukes\cucumber-picocontainer\1.0.0.RC24\cucumber-picocontainer-1.0.0.RC24.jar;C:\Users\Owner\.m2\repository\org\picocontainer\picocontainer\2.10.2\picocontainer-2.10.2.jar;C:\Users\Owner\.m2\repository\javax\annotation\jsr250-api\1.0\jsr250-api-1.0.jar;C:\Users\Owner\.m2\repository\javax\inject\javax.inject\1\javax.inject-1.jar;"/>
    <property name="java.specification.name" value="Java Platform API Specification"/>
    <property name="java.class.version" value="51.0"/>
    <property name="sun.management.compiler" value="HotSpot 64-Bit Tiered Compilers"/>
    <property name="os.version" value="6.1"/>
    <property name="user.home" value="C:\Users\Owner"/>
    <property name="user.timezone" value="America/Montevideo"/>
    <property name="java.awt.printerjob" value="sun.awt.windows.WPrinterJob"/>
    <property name="java.specification.version" value="1.7"/>
    <property name="file.encoding" value="Cp1252"/>
    <property name="user.name" value="Owner"/>
    <property name="java.class.path" value="D:\dropbox\Master\practicas IS\Laboratorios\laboratorio1\target\test-classes;D:\dropbox\Master\practicas IS\Laboratorios\laboratorio1\target\classes;C:\Users\Owner\.m2\repository\junit\junit\4.8.2\junit-4.8.2.jar;C:\Users\Owner\.m2\repository\info\cukes\cucumber-junit\1.0.0.RC24\cucumber-junit-1.0.0.RC24.jar;C:\Users\Owner\.m2\repository\info\cukes\cucumber-core\1.0.0.RC24\cucumber-core-1.0.0.RC24.jar;C:\Users\Owner\.m2\repository\info\cukes\gherkin\2.9.1\gherkin-2.9.1.jar;C:\Users\Owner\.m2\repository\info\cukes\cucumber-html\0.2.1\cucumber-html-0.2.1.jar;C:\Users\Owner\.m2\repository\info\cukes\cucumber-java\1.0.0.RC24\cucumber-java-1.0.0.RC24.jar;C:\Users\Owner\.m2\repository\info\cukes\cucumber-picocontainer\1.0.0.RC24\cucumber-picocontainer-1.0.0.RC24.jar;C:\Users\Owner\.m2\repository\org\picocontainer\picocontainer\2.10.2\picocontainer-2.10.2.jar;C:\Users\Owner\.m2\repository\javax\annotation\jsr250-api\1.0\jsr250-api-1.0.jar;C:\Users\Owner\.m2\repository\javax\inject\javax.inject\1\javax.inject-1.jar;"/>
    <property name="java.vm.specification.version" value="1.7"/>
    <property name="sun.arch.data.model" value="64"/>
    <property name="java.home" value="C:\Program Files\Java\jdk1.7.0_02\jre"/>
    <property name="sun.java.command" value="D:\dropbox\Master\practicas IS\Laboratorios\laboratorio1\target\surefire\surefirebooter2716720949137981465.jar D:\dropbox\Master\practicas IS\Laboratorios\laboratorio1\target\surefire\surefire1410762791246927042tmp D:\dropbox\Master\practicas IS\Laboratorios\laboratorio1\target\surefire\surefire4189687728035365005tmp"/>
    <property name="java.specification.vendor" value="Oracle Corporation"/>
    <property name="user.language" value="en"/>
    <property name="awt.toolkit" value="sun.awt.windows.WToolkit"/>
    <property name="java.vm.info" value="mixed mode"/>
    <property name="java.version" value="1.7.0_02"/>
    <property name="java.ext.dirs" value="C:\Program Files\Java\jdk1.7.0_02\jre\lib\ext;C:\Windows\Sun\Java\lib\ext"/>
    <property name="sun.boot.class.path" value="C:\Program Files\Java\jdk1.7.0_02\jre\lib\resources.jar;C:\Program Files\Java\jdk1.7.0_02\jre\lib\rt.jar;C:\Program Files\Java\jdk1.7.0_02\jre\lib\sunrsasign.jar;C:\Program Files\Java\jdk1.7.0_02\jre\lib\jsse.jar;C:\Program Files\Java\jdk1.7.0_02\jre\lib\jce.jar;C:\Program Files\Java\jdk1.7.0_02\jre\lib\charsets.jar;C:\Program Files\Java\jdk1.7.0_02\jre\classes"/>
    <property name="java.vendor" value="Oracle Corporation"/>
    <property name="localRepository" value="C:\Users\Owner\.m2\repository"/>
    <property name="file.separator" value="\"/>
    <property name="java.vendor.url.bug" value="http://bugreport.sun.com/bugreport/"/>
    <property name="sun.cpu.endian" value="little"/>
    <property name="sun.io.unicode.encoding" value="UnicodeLittle"/>
    <property name="sun.desktop" value="windows"/>
    <property name="sun.cpu.isalist" value="amd64"/>
  </properties>
  <testcase time="0.141" classname="Scenario: Fuelling, Step: 0" name="Given a car with 10 litres of fuel in the tank"/>
  <testcase time="0" classname="Scenario: Fuelling, Step: 1" name="When you fill it with 50 litres of fuel"/>
  <testcase time="0.004" classname="Scenario: Fuelling, Step: 2" name="Then the tank contains 60 litres"/>
  <testcase time="0.004" classname="Scenario: Fuelling" name="Scenario: Fuelling"/>
  <testcase time="0.001" classname="Scenario: Exchange rate between two currencies, Step: 0" name="Given two currencies with exchange rate of 20">
    <skipped/>
  </testcase>
  <testcase time="0" classname="Scenario: Exchange rate between two currencies, Step: 1" name="When I convert from pesos to dollars">
    <skipped/>
  </testcase>
  <testcase time="0.001" classname="Scenario: Exchange rate between two currencies, Step: 2" name="Then I get the exchange rate of 20 pesos for 1 dollar">
    <skipped/>
  </testcase>
  <testcase time="0.001" classname="Scenario: Exchange rate between two currencies" name="Scenario: Exchange rate between two currencies"/>
  <testcase time="0.001" classname="Scenario: Sum two money objects of different currency, Step: 0" name="Given two money objects $10 and USD1">
    <skipped/>
  </testcase>
  <testcase time="0.001" classname="Scenario: Sum two money objects of different currency, Step: 1" name="When I sum them up with an exchange rate of 20 pesos for one dollar">
    <skipped/>
  </testcase>
  <testcase time="0" classname="Scenario: Sum two money objects of different currency, Step: 2" name="Then I get a new money $30">
    <skipped/>
  </testcase>
  <testcase time="0" classname="Scenario: Sum two money objects of different currency" name="Scenario: Sum two money objects of different currency"/>
  <testcase time="0.001" classname="Scenario: Sum two money objects, Step: 0" name="Given two money objects $10 and $15">
    <skipped/>
  </testcase>
  <testcase time="0" classname="Scenario: Sum two money objects, Step: 1" name="When I sum them up">
    <skipped/>
  </testcase>
  <testcase time="0" classname="Scenario: Sum two money objects, Step: 2" name="Then I get a new money $25">
    <skipped/>
  </testcase>
  <testcase time="0" classname="Scenario: Sum two money objects" name="Scenario: Sum two money objects"/>
</testsuite>